%YAML 1.1
%TAG !u! tag:unity3d.com,2011:
--- !u!114 &11400000
MonoBehaviour:
  m_ObjectHideFlags: 0
  m_CorrespondingSourceObject: {fileID: 0}
  m_PrefabInstance: {fileID: 0}
  m_PrefabAsset: {fileID: 0}
  m_GameObject: {fileID: 0}
  m_Enabled: 1
  m_EditorHideFlags: 0
  m_Script: {fileID: 11500000, guid: eaec49cf8659a6d4ab3886c647992f15, type: 3}
  m_Name: JupiterConfiguration
  m_EditorClassIdentifier: 
  gravity: 10
  color: {r: 1, g: 0.5115199, b: 0, a: 0}
